\relax 
\catcode`:\active
\catcode`;\active
\catcode`!\active
\catcode`?\active
\providecommand\HyperFirstAtBeginDocument{\AtBeginDocument}
\HyperFirstAtBeginDocument{\ifx\hyper@anchor\@undefined
\global\let\oldcontentsline\contentsline
\gdef\contentsline#1#2#3#4{\oldcontentsline{#1}{#2}{#3}}
\global\let\oldnewlabel\newlabel
\gdef\newlabel#1#2{\newlabelxx{#1}#2}
\gdef\newlabelxx#1#2#3#4#5#6{\oldnewlabel{#1}{{#2}{#3}}}
\AtEndDocument{\ifx\hyper@anchor\@undefined
\let\contentsline\oldcontentsline
\let\newlabel\oldnewlabel
\fi}
\fi}
\global\let\hyper@last\relax 
\gdef\HyperFirstAtBeginDocument#1{#1}
\providecommand\HyField@AuxAddToFields[1]{}
\select@language{french}
\@writefile{toc}{\select@language{french}}
\@writefile{lof}{\select@language{french}}
\@writefile{lot}{\select@language{french}}
\@writefile{@@@}{\chapterbegin }
\@input{./TexFiles/Chapters/Abstracts_Foreword.aux}
\@input{./TexFiles/Chapters/Introduction.aux}
\@input{./TexFiles/Chapters/Chap_qs.aux}
\@input{./TexFiles/Chapters/Chap_Setup.aux}
\@input{./TexFiles/Chapters/Chap_examples.aux}
\bibstyle{./TexFiles/ametsoc}
\bibdata{./TexFiles/Biblio/Biblio}
\global\mtcsecondpartfalse
\@writefile{toc}{\contentsline {chapter}{Index}{18}{section.4.2}}
